[gd_resource type="Environment" load_steps=3 format=3 uid="uid://bicgdv5syrqrf"]

[sub_resource type="PhysicalSkyMaterial" id="PhysicalSkyMaterial_dj0kg"]

[sub_resource type="Sky" id="Sky_qdowe"]
sky_material = SubResource( "PhysicalSkyMaterial_dj0kg" )

[resource]
background_mode = 2
sky = SubResource( "Sky_qdowe" )
ambient_light_source = 3
ambient_light_sky_contribution = 0.1
tonemap_mode = 3
tonemap_white = 16.0
auto_exposure_scale = 0.3
auto_exposure_min_luma = 0.01
auto_exposure_max_luma = 2.0
auto_exposure_speed = 0.25
ssao_radius = 8.0
ssao_intensity = 1.0
sdfgi_use_occlusion = true
sdfgi_bounce_feedback = 1.24
sdfgi_min_cell_size = 0.25
sdfgi_cascade0_distance = 16.0
sdfgi_max_distance = 256.0
glow_enabled = true
glow_levels/1 = 0.75
glow_levels/2 = 0.5
glow_levels/3 = 0.3
glow_levels/4 = 0.2
glow_levels/5 = 0.1
glow_levels/6 = 0.05
glow_levels/7 = 0.01
glow_normalized = true
glow_intensity = 4.0
glow_blend_mode = 1
glow_hdr_threshold = 2.0
glow_map_strength = 1.0
volumetric_fog_density = 0.009
volumetric_fog_gi_inject = 0.1
