<?xml version="1.0" encoding="UTF-8" standalone="no"?>
<!-- Created with Inkscape (http://www.inkscape.org/) -->

<svg
   inkscape:export-ydpi="96"
   inkscape:export-xdpi="96"
   inkscape:export-filename="/data/Projects/Games/Liblast/Design/Liblast logo bg4.png"
   sodipodi:docname="Logo.svg"
   inkscape:version="1.1.1 (3bf5ae0d25, 2021-09-20, custom)"
   id="svg5"
   version="1.1"
   viewBox="0 0 1253.151 1102.2695"
   height="4166.0576"
   width="4736.3184"
   xmlns:inkscape="http://www.inkscape.org/namespaces/inkscape"
   xmlns:sodipodi="http://sodipodi.sourceforge.net/DTD/sodipodi-0.dtd"
   xmlns:xlink="http://www.w3.org/1999/xlink"
   xmlns="http://www.w3.org/2000/svg"
   xmlns:svg="http://www.w3.org/2000/svg">
  <sodipodi:namedview
     id="namedview7"
     pagecolor="#181818"
     bordercolor="#666666"
     borderopacity="1.0"
     inkscape:pageshadow="2"
     inkscape:pageopacity="0"
     inkscape:pagecheckerboard="0"
     inkscape:document-units="mm"
     showgrid="false"
     inkscape:zoom="0.15099958"
     inkscape:cx="2357.6225"
     inkscape:cy="1841.0647"
     inkscape:window-width="1920"
     inkscape:window-height="1003"
     inkscape:window-x="0"
     inkscape:window-y="0"
     inkscape:window-maximized="1"
     inkscape:current-layer="layer2"
     fit-margin-top="0"
     fit-margin-left="0"
     fit-margin-right="0"
     fit-margin-bottom="0"
     units="px"
     showguides="false"
     inkscape:guide-bbox="true"
     inkscape:snap-bbox="true"
     inkscape:snap-page="true">
    <sodipodi:guide
       position="912.35039,1310.1295"
       orientation="-0.97920786,0.20285948"
       id="guide9012" />
  </sodipodi:namedview>
  <defs
     id="defs2">
    <linearGradient
       inkscape:collect="always"
       id="linearGradient17375">
      <stop
         style="stop-color:#460000;stop-opacity:1"
         offset="0"
         id="stop17371" />
      <stop
         style="stop-color:#bf0000;stop-opacity:0.99774313"
         offset="1"
         id="stop17373" />
    </linearGradient>
    <linearGradient
       inkscape:collect="always"
       id="linearGradient16613">
      <stop
         style="stop-color:#ea2400;stop-opacity:1"
         offset="0"
         id="stop16609" />
      <stop
         style="stop-color:#fe7600;stop-opacity:0"
         offset="1"
         id="stop16611" />
    </linearGradient>
    <linearGradient
       inkscape:collect="always"
       id="linearGradient10513">
      <stop
         style="stop-color:#ea2400;stop-opacity:1"
         offset="0"
         id="stop10509" />
      <stop
         style="stop-color:#fe7600;stop-opacity:1"
         offset="1"
         id="stop10511" />
    </linearGradient>
    <linearGradient
       inkscape:collect="always"
       xlink:href="#linearGradient10513"
       id="linearGradient12684"
       x1="18.811222"
       y1="610.37628"
       x2="18.811222"
       y2="309.77011"
       gradientUnits="userSpaceOnUse" />
    <clipPath
       clipPathUnits="userSpaceOnUse"
       id="clipPath12933">
      <text
         xml:space="preserve"
         style="font-style:normal;font-weight:normal;font-size:40px;line-height:1.25;font-family:sans-serif;letter-spacing:0px;word-spacing:0px;fill:#ff0000;fill-opacity:1;stroke:none"
         x="-728.78284"
         y="490.40057"
         id="text12937"
         transform="matrix(0,-3.2231088,2.3221071,0,-1107.4744,-1736.67)"><tspan
           sodipodi:role="line"
           id="tspan12935"
           x="-728.78284"
           y="490.40057"
           style="font-style:italic;font-variant:normal;font-weight:normal;font-stretch:normal;font-family:'Open Sans Condensed';-inkscape-font-specification:'Open Sans Condensed, ';fill:#ff0000;fill-opacity:1">LIBLAST</tspan></text>
    </clipPath>
    <mask
       maskUnits="userSpaceOnUse"
       id="mask15334">
      <text
         xml:space="preserve"
         style="font-style:normal;font-weight:normal;font-size:40px;line-height:1.25;font-family:sans-serif;letter-spacing:0px;word-spacing:0px;fill:#ffffff;fill-opacity:1;stroke:#fdfdfd;stroke-width:0.605657;stroke-miterlimit:4;stroke-dasharray:none;stroke-opacity:1"
         x="-728.78284"
         y="490.40057"
         id="text15338"
         transform="matrix(2.6211221,0,0,2.6211221,1931.39,-1099.5214)"><tspan
           sodipodi:role="line"
           id="tspan15336"
           x="-728.78284"
           y="490.40057"
           style="font-style:italic;font-variant:normal;font-weight:normal;font-stretch:normal;font-family:'Open Sans Condensed';-inkscape-font-specification:'Open Sans Condensed, ';fill:#ffffff;fill-opacity:1;stroke:#fdfdfd;stroke-width:0.605657;stroke-miterlimit:4;stroke-dasharray:none;stroke-opacity:1">LIBLAST</tspan></text>
    </mask>
    <filter
       style="color-interpolation-filters:sRGB"
       inkscape:label="Blur"
       id="filter3832"
       x="-0.066634495"
       y="-0.013887088"
       width="1.133269"
       height="1.0277742">
      <feGaussianBlur
         stdDeviation="0.41466511"
         result="fbSourceGraphic"
         id="feGaussianBlur3830" />
      <feColorMatrix
         result="fbSourceGraphicAlpha"
         in="fbSourceGraphic"
         values="0 0 0 -1 0 0 0 0 -1 0 0 0 0 -1 0 0 0 0 1 0"
         id="feColorMatrix3872" />
      <feGaussianBlur
         id="feGaussianBlur3874"
         stdDeviation="6.0399999999999991 0.01"
         result="blur"
         in="fbSourceGraphic" />
    </filter>
    <filter
       inkscape:label="Rough and Glossy"
       inkscape:menu="Textures"
       inkscape:menu-tooltip="Crumpled glossy paper effect which can be used for pictures as for objects"
       style="color-interpolation-filters:sRGB"
       id="filter4002"
       x="-4.8355242e-10"
       y="-4.8355242e-10"
       width="1"
       height="1">
      <feTurbulence
         type="turbulence"
         numOctaves="7"
         baseFrequency="0.55713113245630697"
         seed="55"
         result="result0"
         id="feTurbulence3984" />
      <feDiffuseLighting
         surfaceScale="4"
         diffuseConstant="1"
         kernelUnitLength="1"
         result="result1"
         in="result0"
         id="feDiffuseLighting3988"
         lighting-color="#ffffff">
        <feDistantLight
           azimuth="235"
           elevation="60"
           id="feDistantLight3986" />
      </feDiffuseLighting>
      <feSpecularLighting
         in="result0"
         surfaceScale="3"
         specularConstant="1"
         specularExponent="25"
         kernelUnitLength="1"
         result="result3"
         id="feSpecularLighting3992"
         lighting-color="#000000">
        <feDistantLight
           azimuth="235"
           elevation="55"
           id="feDistantLight3990" />
      </feSpecularLighting>
      <feComposite
         in="result1"
         in2="SourceGraphic"
         operator="arithmetic"
         k1="1"
         result="result2"
         id="feComposite3994"
         k2="0"
         k3="0"
         k4="0" />
      <feComposite
         in="result2"
         in2="result3"
         operator="arithmetic"
         k2="1"
         k3="1"
         result="result4"
         id="feComposite3996"
         k1="0"
         k4="0" />
      <feComposite
         in2="SourceAlpha"
         operator="in"
         in="result4"
         result="fbSourceGraphic"
         id="feComposite3998" />
      <feDisplacementMap
         scale="7"
         yChannelSelector="G"
         xChannelSelector="R"
         in2="result0"
         id="feDisplacementMap4000" />
    </filter>
    <linearGradient
       inkscape:collect="always"
       xlink:href="#linearGradient16613"
       id="linearGradient16543"
       x1="-727.40527"
       y1="480.88785"
       x2="-633.90906"
       y2="480.88785"
       gradientUnits="userSpaceOnUse" />
    <linearGradient
       inkscape:collect="always"
       xlink:href="#linearGradient17375"
       id="linearGradient17377"
       x1="-727.99377"
       y1="476.11346"
       x2="-634.00549"
       y2="476.11346"
       gradientUnits="userSpaceOnUse" />
    <filter
       style="color-interpolation-filters:sRGB"
       inkscape:label="Blur"
       id="filter2358"
       x="-0.078408408"
       y="-0.051182899"
       width="1.1568168"
       height="1.1023658">
      <feGaussianBlur
         stdDeviation="1.0343111"
         result="fbSourceGraphic"
         id="feGaussianBlur2352" />
      <feColorMatrix
         result="fbSourceGraphicAlpha"
         in="fbSourceGraphic"
         values="0 0 0 -1 0 0 0 0 -1 0 0 0 0 -1 0 0 0 0 1 0"
         id="feColorMatrix2354" />
      <feGaussianBlur
         id="feGaussianBlur2356"
         stdDeviation="6.0399999999999991 0.01"
         result="blur"
         in="fbSourceGraphic" />
    </filter>
    <linearGradient
       inkscape:collect="always"
       xlink:href="#linearGradient17375"
       id="linearGradient3123"
       gradientUnits="userSpaceOnUse"
       x1="-727.99377"
       y1="476.11346"
       x2="-634.00549"
       y2="476.11346" />
    <linearGradient
       inkscape:collect="always"
       xlink:href="#linearGradient10513"
       id="linearGradient3125"
       gradientUnits="userSpaceOnUse"
       x1="18.811222"
       y1="610.37628"
       x2="18.811222"
       y2="309.77011" />
    <linearGradient
       inkscape:collect="always"
       xlink:href="#linearGradient10513"
       id="linearGradient1160"
       gradientUnits="userSpaceOnUse"
       x1="18.811222"
       y1="610.37628"
       x2="18.811222"
       y2="309.77011" />
    <linearGradient
       inkscape:collect="always"
       xlink:href="#linearGradient17375"
       id="linearGradient1776"
       gradientUnits="userSpaceOnUse"
       x1="-727.99377"
       y1="476.11346"
       x2="-634.00549"
       y2="476.11346" />
    <linearGradient
       inkscape:collect="always"
       xlink:href="#linearGradient10513"
       id="linearGradient35940"
       gradientUnits="userSpaceOnUse"
       x1="18.811222"
       y1="610.37628"
       x2="18.811222"
       y2="309.77011" />
  </defs>
  <g
     inkscape:groupmode="layer"
     id="layer2"
     inkscape:label="BG"
     style="display:inline"
     transform="translate(652.85623,-298.87352)"
     sodipodi:insensitive="true">
    <rect
       style="fill:#000000;fill-opacity:1;stroke:#4d4d4d;stroke-width:0;stroke-linecap:round;stroke-opacity:1;paint-order:markers stroke fill"
       id="rect4249"
       width="1225.7052"
       height="1086.7213"
       x="-71.705978"
       y="-35.076351"
       transform="scale(0.26458333)" />
    <rect
       style="opacity:1;fill:#000000;stroke:none;stroke-width:8;stroke-linecap:round;stroke-linejoin:round;paint-order:markers stroke fill"
       id="rect3309"
       width="916.15063"
       height="916.15063"
       x="1496.1774"
       y="104.08059"
       transform="matrix(0.30083856,0,0,0.30083856,-45.970854,-45.297294)"
       inkscape:export-filename="/data/Projects/Games/Liblast/Design/YT logo.png"
       inkscape:export-xdpi="96"
       inkscape:export-ydpi="96" />
    <rect
       style="fill:#000000;fill-opacity:1;stroke:#4d4d4d;stroke-width:0;stroke-linecap:round;stroke-opacity:1;paint-order:markers stroke fill"
       id="rect888"
       width="1225.7052"
       height="1086.7213"
       x="-71.705978"
       y="-35.076351"
       transform="scale(0.26458333)" />
    <rect
       style="opacity:1;fill:#1a1a1a;stroke:none;stroke-width:1.58411;stroke-miterlimit:4;stroke-dasharray:none;paint-order:markers stroke fill"
       id="rect38775"
       width="1251.5668"
       height="1100.6853"
       x="-644.60852"
       y="325.92416"
       transform="translate(-7.4556444,-26.258598)" />
    <rect
       style="opacity:1;fill:#ffffff;stroke:none;stroke-width:4.97795;paint-order:markers stroke fill"
       id="rect1924"
       width="963.83179"
       height="145.15443"
       x="-644.76562"
       y="610.40045"
       transform="translate(-7.4556444,-26.258598)" />
    <rect
       style="opacity:1;fill:#ffffff;stroke:none;stroke-width:4.97795;paint-order:markers stroke fill"
       id="rect35874"
       width="963.83179"
       height="145.15443"
       x="-644.76562"
       y="901.03998"
       transform="translate(-7.4556444,-26.258598)" />
    <rect
       style="opacity:1;fill:#ffffff;stroke:none;stroke-width:4.97795;paint-order:markers stroke fill"
       id="rect35928"
       width="963.83179"
       height="145.15443"
       x="-644.76562"
       y="1191.7083"
       transform="translate(-7.4556444,-26.258598)" />
  </g>
  <g
     inkscape:label="Layer 1"
     inkscape:groupmode="layer"
     id="layer1"
     transform="translate(645.40058,-325.13211)">
    <g
       id="g1748"
       transform="translate(-322.67293,374.10006)">
      <g
         id="g3870"
         transform="matrix(0.93228464,0,0,0.93228464,-241.87801,10.951286)"
         style="opacity:0.342747;fill:#552200;stroke:#ff0000;filter:url(#filter2358)"
         inkscape:export-filename="/data/Projects/Games/Liblast/Design/logo.png"
         inkscape:export-xdpi="51.868626"
         inkscape:export-ydpi="51.868626">
        <text
           xml:space="preserve"
           style="font-style:normal;font-weight:normal;font-size:40px;line-height:1.25;font-family:sans-serif;letter-spacing:0px;word-spacing:0px;fill:#552200;fill-opacity:1;stroke:#ff0000;stroke-opacity:1"
           x="-728.78284"
           y="490.40057"
           id="text3864"
           transform="matrix(2.5001014,0,0,2.5001013,2118.7194,-1041.0983)"><tspan
             sodipodi:role="line"
             id="tspan3862"
             x="-728.78284"
             y="490.40057"
             style="font-style:italic;font-variant:normal;font-weight:normal;font-stretch:normal;font-family:'Open Sans Condensed';-inkscape-font-specification:'Open Sans Condensed, ';fill:#552200;fill-opacity:1;stroke:#ff0000;stroke-opacity:1">LIBLAST</tspan></text>
      </g>
      <g
         id="g3656"
         transform="matrix(0.93228464,0,0,0.93228464,-241.87801,11.480453)"
         style="fill:#550000;stroke:none;filter:url(#filter3832)"
         inkscape:export-filename="/data/Projects/Games/Liblast/Design/logo.png"
         inkscape:export-xdpi="51.868626"
         inkscape:export-ydpi="51.868626">
        <text
           xml:space="preserve"
           style="font-style:normal;font-weight:normal;font-size:40px;line-height:1.25;font-family:sans-serif;letter-spacing:0px;word-spacing:0px;fill:#550000;fill-opacity:1;stroke:none;stroke-opacity:1"
           x="-728.78284"
           y="490.40057"
           id="text3380"
           transform="matrix(2.5001014,0,0,2.5001013,2118.7194,-1041.0983)"><tspan
             sodipodi:role="line"
             id="tspan3378"
             x="-728.78284"
             y="490.40057"
             style="font-style:italic;font-variant:normal;font-weight:normal;font-stretch:normal;font-family:'Open Sans Condensed';-inkscape-font-specification:'Open Sans Condensed, ';fill:#550000;fill-opacity:1;stroke:none;stroke-opacity:1">LIBLAST</tspan></text>
      </g>
      <g
         id="g16576"
         transform="matrix(0.88923981,0,0,0.88923981,15.902683,18.089503)"
         inkscape:export-filename="/data/Projects/Games/Liblast/Design/logo.png"
         inkscape:export-xdpi="51.868626"
         inkscape:export-ydpi="51.868626">
        <text
           xml:space="preserve"
           style="font-style:normal;font-weight:normal;font-size:40px;line-height:1.25;font-family:sans-serif;letter-spacing:0px;word-spacing:0px;fill:none;fill-opacity:1;stroke:url(#linearGradient17377);stroke-opacity:1"
           x="-728.78284"
           y="490.40057"
           id="text15382"
           transform="matrix(2.6211221,0,0,2.621122,1931.39,-1099.5214)"><tspan
             id="tspan15380"
             x="-728.78284"
             y="490.40057"
             style="font-style:italic;font-variant:normal;font-weight:normal;font-stretch:normal;font-family:'Open Sans Condensed';-inkscape-font-specification:'Open Sans Condensed, ';fill:none;fill-opacity:1;stroke:url(#linearGradient17377);stroke-opacity:1"
             sodipodi:role="line">LIBLAST</tspan></text>
        <text
           xml:space="preserve"
           style="font-style:normal;font-weight:normal;font-size:40px;line-height:1.25;font-family:sans-serif;letter-spacing:0px;word-spacing:0px;fill:#fd4500;fill-opacity:1;stroke:none;stroke-width:0;stroke-miterlimit:4;stroke-dasharray:none;stroke-opacity:1;paint-order:markers stroke fill"
           x="-728.78284"
           y="490.40057"
           id="text7061"
           transform="matrix(0.60677203,0,0,0.60677203,460.70045,-83.392836)"><tspan
             sodipodi:role="line"
             id="tspan7059"
             x="-728.78284"
             y="490.40057"
             style="font-style:italic;font-variant:normal;font-weight:normal;font-stretch:normal;font-family:'Open Sans Condensed';-inkscape-font-specification:'Open Sans Condensed, ';fill:#fd4500;fill-opacity:1;stroke:none;stroke-width:0;stroke-miterlimit:4;stroke-dasharray:none;stroke-opacity:1;paint-order:markers stroke fill">A LIBRE MULTIPLAYER FPS GAME</tspan></text>
        <rect
           style="mix-blend-mode:normal;fill:url(#linearGradient12684);fill-opacity:1;stroke:none;stroke-width:7.55906;stroke-linecap:round;paint-order:markers stroke fill"
           id="rect12596"
           width="109.6572"
           height="339.00281"
           x="-60.158474"
           y="290.37952"
           transform="matrix(0,1.1287688,-0.81322793,0,518.38479,149.86446)"
           clip-path="url(#clipPath12933)" />
      </g>
    </g>
    <g
       id="g8930"
       transform="matrix(1.4453118,0,0,1.4453118,-5.0445275,-13.447954)">
      <g
         id="g7697"
         transform="matrix(6.5378298,0,0,6.5378298,1307.5503,-702.31895)" />
    </g>
    <g
       id="g3446">
      <g
         id="g3103"
         transform="matrix(0.93228464,0,0,0.93228464,161.42793,10.951286)"
         style="opacity:0.342747;fill:#552200;stroke:#ff0000;filter:url(#filter2358)"
         inkscape:export-filename="/data/Projects/Games/Liblast/Design/logo.png"
         inkscape:export-xdpi="51.868626"
         inkscape:export-ydpi="51.868626">
        <text
           xml:space="preserve"
           style="font-style:normal;font-weight:normal;font-size:40px;line-height:1.25;font-family:sans-serif;letter-spacing:0px;word-spacing:0px;fill:#552200;fill-opacity:1;stroke:#ff0000;stroke-opacity:1"
           x="-728.78284"
           y="490.40057"
           id="text3101"
           transform="matrix(2.5001014,0,0,2.5001013,2118.7194,-1041.0983)"><tspan
             sodipodi:role="line"
             id="tspan3099"
             x="-728.78284"
             y="490.40057"
             style="font-style:italic;font-variant:normal;font-weight:normal;font-stretch:normal;font-family:'Open Sans Condensed';-inkscape-font-specification:'Open Sans Condensed, ';fill:#552200;fill-opacity:1;stroke:#ff0000;stroke-opacity:1">LIBLAST</tspan></text>
      </g>
      <g
         id="g3109"
         transform="matrix(0.93228464,0,0,0.93228464,161.42793,11.480453)"
         style="fill:#550000;stroke:none;filter:url(#filter3832)"
         inkscape:export-filename="/data/Projects/Games/Liblast/Design/logo.png"
         inkscape:export-xdpi="51.868626"
         inkscape:export-ydpi="51.868626">
        <text
           xml:space="preserve"
           style="font-style:normal;font-weight:normal;font-size:40px;line-height:1.25;font-family:sans-serif;letter-spacing:0px;word-spacing:0px;fill:#550000;fill-opacity:1;stroke:none;stroke-opacity:1"
           x="-728.78284"
           y="490.40057"
           id="text3107"
           transform="matrix(2.5001014,0,0,2.5001013,2118.7194,-1041.0983)"><tspan
             sodipodi:role="line"
             id="tspan3105"
             x="-728.78284"
             y="490.40057"
             style="font-style:italic;font-variant:normal;font-weight:normal;font-stretch:normal;font-family:'Open Sans Condensed';-inkscape-font-specification:'Open Sans Condensed, ';fill:#550000;fill-opacity:1;stroke:none;stroke-opacity:1">LIBLAST</tspan></text>
      </g>
      <g
         id="g3121"
         transform="matrix(0.88923981,0,0,0.88923981,419.20863,18.089503)"
         inkscape:export-filename="/data/Projects/Games/Liblast/Design/logo.png"
         inkscape:export-xdpi="51.868626"
         inkscape:export-ydpi="51.868626">
        <text
           xml:space="preserve"
           style="font-style:normal;font-weight:normal;font-size:40px;line-height:1.25;font-family:sans-serif;letter-spacing:0px;word-spacing:0px;fill:none;fill-opacity:1;stroke:url(#linearGradient3123);stroke-opacity:1"
           x="-728.78284"
           y="490.40057"
           id="text3113"
           transform="matrix(2.6211221,0,0,2.621122,1931.39,-1099.5214)"><tspan
             id="tspan3111"
             x="-728.78284"
             y="490.40057"
             style="font-style:italic;font-variant:normal;font-weight:normal;font-stretch:normal;font-family:'Open Sans Condensed';-inkscape-font-specification:'Open Sans Condensed, ';fill:none;fill-opacity:1;stroke:url(#linearGradient3123);stroke-opacity:1"
             sodipodi:role="line">LIBLAST</tspan></text>
        <rect
           style="mix-blend-mode:normal;fill:url(#linearGradient3125);fill-opacity:1;stroke:none;stroke-width:7.55906;stroke-linecap:round;paint-order:markers stroke fill"
           id="rect3119"
           width="109.6572"
           height="339.00281"
           x="-60.158474"
           y="290.37952"
           transform="matrix(0,1.1287688,-0.81322793,0,518.38479,149.86446)"
           clip-path="url(#clipPath12933)" />
      </g>
    </g>
    <g
       id="g1156"
       transform="matrix(0.88923981,0,0,0.88923981,-303.36198,684.78568)"
       inkscape:export-filename="/data/Projects/Games/Liblast/Design/logo.png"
       inkscape:export-xdpi="51.868626"
       inkscape:export-ydpi="51.868626">
      <text
         xml:space="preserve"
         style="font-style:normal;font-weight:normal;font-size:40px;line-height:1.25;font-family:sans-serif;letter-spacing:0px;word-spacing:0px;fill:#fd4500;fill-opacity:1;stroke:none;stroke-width:0;stroke-miterlimit:4;stroke-dasharray:none;stroke-opacity:1;paint-order:markers stroke fill"
         x="-728.78284"
         y="490.40057"
         id="text1152"
         transform="matrix(0.60677203,0,0,0.60677203,460.70045,-83.392836)"><tspan
           sodipodi:role="line"
           id="tspan1150"
           x="-728.78284"
           y="490.40057"
           style="font-style:italic;font-variant:normal;font-weight:normal;font-stretch:normal;font-family:'Open Sans Condensed';-inkscape-font-specification:'Open Sans Condensed, ';fill:#fd4500;fill-opacity:1;stroke:none;stroke-width:0;stroke-miterlimit:4;stroke-dasharray:none;stroke-opacity:1;paint-order:markers stroke fill">A LIBRE MULTIPLAYER FPS GAME</tspan></text>
      <rect
         style="mix-blend-mode:normal;fill:url(#linearGradient1160);fill-opacity:1;stroke:none;stroke-width:7.55906;stroke-linecap:round;paint-order:markers stroke fill"
         id="rect1154"
         width="109.6572"
         height="339.00281"
         x="-60.158474"
         y="290.37952"
         transform="matrix(0,1.1287688,-0.81322793,0,518.38479,149.86446)"
         clip-path="url(#clipPath12933)" />
    </g>
    <g
       id="g1248"
       transform="matrix(0.88923981,0,0,0.88923981,15.902683,684.78568)"
       inkscape:export-filename="/data/Projects/Games/Liblast/Design/logo.png"
       inkscape:export-xdpi="51.868626"
       inkscape:export-ydpi="51.868626"
       style="fill:#ffffff">
      <text
         xml:space="preserve"
         style="font-style:normal;font-weight:normal;font-size:40px;line-height:1.25;font-family:sans-serif;letter-spacing:0px;word-spacing:0px;fill:#ffffff;fill-opacity:1;stroke:none;stroke-width:0;stroke-miterlimit:4;stroke-dasharray:none;stroke-opacity:1;paint-order:markers stroke fill"
         x="-728.78284"
         y="490.40057"
         id="text1244"
         transform="matrix(0.60677203,0,0,0.60677203,460.70045,-83.392836)"><tspan
           sodipodi:role="line"
           id="tspan1242"
           x="-728.78284"
           y="490.40057"
           style="font-style:italic;font-variant:normal;font-weight:normal;font-stretch:normal;font-family:'Open Sans Condensed';-inkscape-font-specification:'Open Sans Condensed, ';fill:#ffffff;fill-opacity:1;stroke:none;stroke-width:0;stroke-miterlimit:4;stroke-dasharray:none;stroke-opacity:1;paint-order:markers stroke fill">A LIBRE MULTIPLAYER FPS GAME</tspan></text>
      <rect
         style="mix-blend-mode:normal;fill:#ffffff;fill-opacity:1;stroke:none;stroke-width:7.55906;stroke-linecap:round;paint-order:markers stroke fill"
         id="rect1246"
         width="109.6572"
         height="339.00281"
         x="-60.158474"
         y="290.37952"
         transform="matrix(0,1.1287688,-0.81322793,0,518.38479,149.86446)"
         clip-path="url(#clipPath12933)" />
    </g>
    <g
       id="g1276"
       transform="matrix(0.88923981,0,0,0.88923981,15.902683,829.64253)"
       inkscape:export-filename="/data/Projects/Games/Liblast/Design/logo.png"
       inkscape:export-xdpi="51.868626"
       inkscape:export-ydpi="51.868626"
       style="fill:#000000">
      <text
         xml:space="preserve"
         style="font-style:normal;font-weight:normal;font-size:40px;line-height:1.25;font-family:sans-serif;letter-spacing:0px;word-spacing:0px;fill:#000000;fill-opacity:1;stroke:none;stroke-width:0;stroke-miterlimit:4;stroke-dasharray:none;stroke-opacity:1;paint-order:markers stroke fill"
         x="-728.78284"
         y="490.40057"
         id="text1272"
         transform="matrix(0.60677203,0,0,0.60677203,460.70045,-83.392836)"><tspan
           sodipodi:role="line"
           id="tspan1270"
           x="-728.78284"
           y="490.40057"
           style="font-style:italic;font-variant:normal;font-weight:normal;font-stretch:normal;font-family:'Open Sans Condensed';-inkscape-font-specification:'Open Sans Condensed, ';fill:#000000;fill-opacity:1;stroke:none;stroke-width:0;stroke-miterlimit:4;stroke-dasharray:none;stroke-opacity:1;paint-order:markers stroke fill">A LIBRE MULTIPLAYER FPS GAME</tspan></text>
      <rect
         style="mix-blend-mode:normal;fill:#000000;fill-opacity:1;stroke:none;stroke-width:7.55906;stroke-linecap:round;paint-order:markers stroke fill"
         id="rect1274"
         width="109.6572"
         height="339.00281"
         x="-60.158474"
         y="290.37952"
         transform="matrix(0,1.1287688,-0.81322793,0,518.38479,149.86446)"
         clip-path="url(#clipPath12933)" />
    </g>
    <use
       x="0"
       y="0"
       xlink:href="#g1156"
       id="use1638"
       width="100%"
       height="100%"
       transform="translate(0,144.85685)" />
    <g
       id="g1774"
       transform="translate(-3.4082635,374.10006)"
       style="fill:#ffffff">
      <g
         id="g1754"
         transform="matrix(0.93228464,0,0,0.93228464,-241.87801,10.951286)"
         style="opacity:0.342747;fill:#ffffff;stroke:#ffffff;filter:url(#filter2358)"
         inkscape:export-filename="/data/Projects/Games/Liblast/Design/logo.png"
         inkscape:export-xdpi="51.868626"
         inkscape:export-ydpi="51.868626">
        <text
           xml:space="preserve"
           style="font-style:normal;font-weight:normal;font-size:40px;line-height:1.25;font-family:sans-serif;letter-spacing:0px;word-spacing:0px;fill:#ffffff;fill-opacity:1;stroke:#ffffff;stroke-opacity:1"
           x="-728.78284"
           y="490.40057"
           id="text1752"
           transform="matrix(2.5001014,0,0,2.5001013,2118.7194,-1041.0983)"><tspan
             sodipodi:role="line"
             id="tspan1750"
             x="-728.78284"
             y="490.40057"
             style="font-style:italic;font-variant:normal;font-weight:normal;font-stretch:normal;font-family:'Open Sans Condensed';-inkscape-font-specification:'Open Sans Condensed, ';fill:#ffffff;fill-opacity:1;stroke:#ffffff;stroke-opacity:1">LIBLAST</tspan></text>
      </g>
      <g
         id="g1760"
         transform="matrix(0.93228464,0,0,0.93228464,-241.87801,11.480453)"
         style="fill:#ffffff;stroke:none;filter:url(#filter3832)"
         inkscape:export-filename="/data/Projects/Games/Liblast/Design/logo.png"
         inkscape:export-xdpi="51.868626"
         inkscape:export-ydpi="51.868626">
        <text
           xml:space="preserve"
           style="font-style:normal;font-weight:normal;font-size:40px;line-height:1.25;font-family:sans-serif;letter-spacing:0px;word-spacing:0px;fill:#ffffff;fill-opacity:1;stroke:none;stroke-opacity:1"
           x="-728.78284"
           y="490.40057"
           id="text1758"
           transform="matrix(2.5001014,0,0,2.5001013,2118.7194,-1041.0983)"><tspan
             sodipodi:role="line"
             id="tspan1756"
             x="-728.78284"
             y="490.40057"
             style="font-style:italic;font-variant:normal;font-weight:normal;font-stretch:normal;font-family:'Open Sans Condensed';-inkscape-font-specification:'Open Sans Condensed, ';fill:#ffffff;fill-opacity:1;stroke:none;stroke-opacity:1">LIBLAST</tspan></text>
      </g>
      <g
         id="g1772"
         transform="matrix(0.88923981,0,0,0.88923981,15.902683,18.089503)"
         inkscape:export-filename="/data/Projects/Games/Liblast/Design/logo.png"
         inkscape:export-xdpi="51.868626"
         inkscape:export-ydpi="51.868626"
         style="fill:#ffffff;stroke:#000000">
        <text
           xml:space="preserve"
           style="font-style:normal;font-weight:normal;font-size:40px;line-height:1.25;font-family:sans-serif;letter-spacing:0px;word-spacing:0px;fill:#ffffff;fill-opacity:1;stroke:#000000;stroke-opacity:1"
           x="-728.78284"
           y="490.40057"
           id="text1764"
           transform="matrix(2.6211221,0,0,2.621122,1931.39,-1099.5214)"><tspan
             id="tspan1762"
             x="-728.78284"
             y="490.40057"
             style="font-style:italic;font-variant:normal;font-weight:normal;font-stretch:normal;font-family:'Open Sans Condensed';-inkscape-font-specification:'Open Sans Condensed, ';fill:#ffffff;fill-opacity:1;stroke:#000000;stroke-opacity:1"
             sodipodi:role="line">LIBLAST</tspan></text>
        <text
           xml:space="preserve"
           style="font-style:normal;font-weight:normal;font-size:40px;line-height:1.25;font-family:sans-serif;letter-spacing:0px;word-spacing:0px;fill:#ffffff;fill-opacity:1;stroke:#000000;stroke-width:0;stroke-miterlimit:4;stroke-dasharray:none;stroke-opacity:1;paint-order:markers stroke fill"
           x="-728.78284"
           y="490.40057"
           id="text1768"
           transform="matrix(0.60677203,0,0,0.60677203,460.70045,-83.392836)"><tspan
             sodipodi:role="line"
             id="tspan1766"
             x="-728.78284"
             y="490.40057"
             style="font-style:italic;font-variant:normal;font-weight:normal;font-stretch:normal;font-family:'Open Sans Condensed';-inkscape-font-specification:'Open Sans Condensed, ';fill:#ffffff;fill-opacity:1;stroke:#000000;stroke-width:0;stroke-miterlimit:4;stroke-dasharray:none;stroke-opacity:1;paint-order:markers stroke fill">A LIBRE MULTIPLAYER FPS GAME</tspan></text>
        <rect
           style="mix-blend-mode:normal;fill:#ffffff;fill-opacity:1;stroke:#000000;stroke-width:7.55906;stroke-linecap:round;paint-order:markers stroke fill"
           id="rect1770"
           width="109.6572"
           height="339.00281"
           x="-60.158474"
           y="290.37952"
           transform="matrix(0,1.1287688,-0.81322793,0,518.38479,149.86446)"
           clip-path="url(#clipPath12933)" />
      </g>
    </g>
    <use
       x="0"
       y="0"
       xlink:href="#g1748"
       id="use1926"
       transform="translate(0,147.7393)"
       width="100%"
       height="100%" />
    <g
       id="g2034"
       transform="translate(-3.4082635,521.83936)"
       style="fill:#ffffff">
      <g
         id="g2014"
         transform="matrix(0.93228464,0,0,0.93228464,-241.87801,10.951286)"
         style="opacity:0.342747;fill:#ffffff;stroke:#ffffff;filter:url(#filter2358)"
         inkscape:export-filename="/data/Projects/Games/Liblast/Design/logo.png"
         inkscape:export-xdpi="51.868626"
         inkscape:export-ydpi="51.868626">
        <text
           xml:space="preserve"
           style="font-style:normal;font-weight:normal;font-size:40px;line-height:1.25;font-family:sans-serif;letter-spacing:0px;word-spacing:0px;fill:#ffffff;fill-opacity:1;stroke:#ffffff;stroke-opacity:1"
           x="-728.78284"
           y="490.40057"
           id="text2012"
           transform="matrix(2.5001014,0,0,2.5001013,2118.7194,-1041.0983)"><tspan
             sodipodi:role="line"
             id="tspan2010"
             x="-728.78284"
             y="490.40057"
             style="font-style:italic;font-variant:normal;font-weight:normal;font-stretch:normal;font-family:'Open Sans Condensed';-inkscape-font-specification:'Open Sans Condensed, ';fill:#ffffff;fill-opacity:1;stroke:#ffffff;stroke-opacity:1">LIBLAST</tspan></text>
      </g>
      <g
         id="g2020"
         transform="matrix(0.93228464,0,0,0.93228464,-241.87801,11.480453)"
         style="fill:#000000;stroke:none;filter:url(#filter3832)"
         inkscape:export-filename="/data/Projects/Games/Liblast/Design/logo.png"
         inkscape:export-xdpi="51.868626"
         inkscape:export-ydpi="51.868626">
        <text
           xml:space="preserve"
           style="font-style:normal;font-weight:normal;font-size:40px;line-height:1.25;font-family:sans-serif;letter-spacing:0px;word-spacing:0px;fill:#000000;fill-opacity:1;stroke:none;stroke-opacity:1"
           x="-728.78284"
           y="490.40057"
           id="text2018"
           transform="matrix(2.5001014,0,0,2.5001013,2118.7194,-1041.0983)"><tspan
             sodipodi:role="line"
             id="tspan2016"
             x="-728.78284"
             y="490.40057"
             style="font-style:italic;font-variant:normal;font-weight:normal;font-stretch:normal;font-family:'Open Sans Condensed';-inkscape-font-specification:'Open Sans Condensed, ';fill:#000000;fill-opacity:1;stroke:none;stroke-opacity:1">LIBLAST</tspan></text>
      </g>
      <g
         id="g2032"
         transform="matrix(0.88923981,0,0,0.88923981,15.902683,18.089503)"
         inkscape:export-filename="/data/Projects/Games/Liblast/Design/logo.png"
         inkscape:export-xdpi="51.868626"
         inkscape:export-ydpi="51.868626"
         style="fill:#ffffff;stroke:#000000">
        <text
           xml:space="preserve"
           style="font-style:normal;font-weight:normal;font-size:40px;line-height:1.25;font-family:sans-serif;letter-spacing:0px;word-spacing:0px;fill:#ffffff;fill-opacity:1;stroke:#000000;stroke-opacity:1"
           x="-728.78284"
           y="490.40057"
           id="text2024"
           transform="matrix(2.6211221,0,0,2.621122,1931.39,-1099.5214)"><tspan
             id="tspan2022"
             x="-728.78284"
             y="490.40057"
             style="font-style:italic;font-variant:normal;font-weight:normal;font-stretch:normal;font-family:'Open Sans Condensed';-inkscape-font-specification:'Open Sans Condensed, ';fill:#ffffff;fill-opacity:1;stroke:#000000;stroke-opacity:1"
             sodipodi:role="line">LIBLAST</tspan></text>
        <text
           xml:space="preserve"
           style="font-style:normal;font-weight:normal;font-size:40px;line-height:1.25;font-family:sans-serif;letter-spacing:0px;word-spacing:0px;fill:#000000;fill-opacity:1;stroke:#000000;stroke-width:0;stroke-miterlimit:4;stroke-dasharray:none;stroke-opacity:1;paint-order:markers stroke fill"
           x="-728.78284"
           y="490.40057"
           id="text2028"
           transform="matrix(0.60677203,0,0,0.60677203,460.70045,-83.392836)"><tspan
             sodipodi:role="line"
             id="tspan2026"
             x="-728.78284"
             y="490.40057"
             style="font-style:italic;font-variant:normal;font-weight:normal;font-stretch:normal;font-family:'Open Sans Condensed';-inkscape-font-specification:'Open Sans Condensed, ';fill:#000000;fill-opacity:1;stroke:#000000;stroke-width:0;stroke-miterlimit:4;stroke-dasharray:none;stroke-opacity:1;paint-order:markers stroke fill">A LIBRE MULTIPLAYER FPS GAME</tspan></text>
        <rect
           style="mix-blend-mode:normal;fill:#ffffff;fill-opacity:1;stroke:#000000;stroke-width:7.55906;stroke-linecap:round;paint-order:markers stroke fill"
           id="rect2030"
           width="109.6572"
           height="339.00281"
           x="-60.158474"
           y="290.37952"
           transform="matrix(0,1.1287688,-0.81322793,0,518.38479,149.86446)"
           clip-path="url(#clipPath12933)" />
      </g>
    </g>
    <text
       xml:space="preserve"
       style="font-style:normal;font-weight:normal;font-size:49.4307px;line-height:1.25;font-family:sans-serif;fill:#000000;fill-opacity:1;stroke:none;stroke-width:1.23577"
       x="-230.80498"
       y="415.58112"
       id="text3986"><tspan
         sodipodi:role="line"
         id="tspan3984"
         style="fill:#ffffff;stroke-width:1.23577"
         x="-230.80498"
         y="415.58112">color</tspan></text>
    <text
       xml:space="preserve"
       style="font-style:normal;font-weight:normal;font-size:41.7295px;line-height:1.25;font-family:sans-serif;fill:#000000;fill-opacity:1;stroke:none;stroke-width:1.04324"
       x="20.501175"
       y="412.9552"
       id="text5642"><tspan
         sodipodi:role="line"
         id="tspan5640"
         style="fill:#ffffff;stroke-width:1.04324"
         x="20.501175"
         y="412.9552">monochrome</tspan></text>
    <text
       xml:space="preserve"
       style="font-style:normal;font-weight:normal;font-size:27.9478px;line-height:1.25;font-family:sans-serif;fill:#000000;fill-opacity:1;stroke:none;stroke-width:0.698695"
       x="-563.35297"
       y="541.8396"
       id="text6240"><tspan
         sodipodi:role="line"
         id="tspan6238"
         style="fill:#ffffff;stroke-width:0.698695"
         x="-563.35297"
         y="541.8396">for dark bg</tspan></text>
    <text
       xml:space="preserve"
       style="font-style:normal;font-weight:normal;font-size:27.9478px;line-height:1.25;font-family:sans-serif;fill:#000000;fill-opacity:1;stroke:none;stroke-width:0.698695"
       x="-566.86926"
       y="688.1377"
       id="text7062"><tspan
         sodipodi:role="line"
         id="tspan7060"
         style="fill:#000000;stroke-width:0.698695"
         x="-566.86926"
         y="688.1377">for light bg</tspan></text>
    <text
       xml:space="preserve"
       style="font-style:normal;font-weight:normal;font-size:27.9478px;line-height:1.25;font-family:sans-serif;fill:#000000;fill-opacity:1;stroke:none;stroke-width:0.698695"
       x="-563.35297"
       y="834.43573"
       id="text13186"><tspan
         sodipodi:role="line"
         id="tspan13184"
         style="fill:#ffffff;stroke-width:0.698695"
         x="-563.35297"
         y="834.43573">for dark bg</tspan></text>
    <text
       xml:space="preserve"
       style="font-style:normal;font-weight:normal;font-size:27.9478px;line-height:1.25;font-family:sans-serif;fill:#000000;fill-opacity:1;stroke:none;stroke-width:0.698695"
       x="399.89807"
       y="599.09509"
       id="text13194"><tspan
         sodipodi:role="line"
         style="fill:#ffffff;stroke-width:0.698695"
         x="399.89807"
         y="599.09509"
         id="tspan16290">high detail</tspan><tspan
         sodipodi:role="line"
         style="fill:#ffffff;stroke-width:0.698695"
         x="399.89807"
         y="634.02985"
         id="tspan39453">large size</tspan></text>
    <path
       style="fill:none;stroke:#ffffff;stroke-width:1.565;stroke-linecap:butt;stroke-linejoin:miter;stroke-miterlimit:4;stroke-dasharray:none;stroke-opacity:1"
       d="M -365.71547,464.09102 H 368.28654 V 754.75255 H 318.66522"
       id="path15287"
       sodipodi:nodetypes="cccc" />
    <text
       xml:space="preserve"
       style="font-style:normal;font-weight:normal;font-size:27.9478px;line-height:1.25;font-family:sans-serif;fill:#000000;fill-opacity:1;stroke:none;stroke-width:0.698695"
       x="399.89807"
       y="892.48151"
       id="text31790"><tspan
         sodipodi:role="line"
         style="fill:#ffffff;stroke-width:0.698695"
         x="399.89807"
         y="892.48151"
         id="tspan31788">medium detail</tspan><tspan
         sodipodi:role="line"
         style="fill:#ffffff;stroke-width:0.698695"
         x="399.89807"
         y="927.41626"
         id="tspan41717">medium size</tspan></text>
    <path
       style="fill:none;stroke:#ffffff;stroke-width:1.565;stroke-linecap:butt;stroke-linejoin:miter;stroke-miterlimit:4;stroke-dasharray:none;stroke-opacity:1"
       d="M 368.28654,754.75255 V 1045.4141"
       id="path31792"
       sodipodi:nodetypes="cc" />
    <g
       id="g35882"
       transform="matrix(0.88923981,0,0,0.88923981,15.902683,829.64253)"
       inkscape:export-filename="/data/Projects/Games/Liblast/Design/logo.png"
       inkscape:export-xdpi="51.868626"
       inkscape:export-ydpi="51.868626"
       style="fill:#000000">
      <text
         xml:space="preserve"
         style="font-style:normal;font-weight:normal;font-size:40px;line-height:1.25;font-family:sans-serif;letter-spacing:0px;word-spacing:0px;fill:#000000;fill-opacity:1;stroke:none;stroke-width:0;stroke-miterlimit:4;stroke-dasharray:none;stroke-opacity:1;paint-order:markers stroke fill"
         x="-728.78284"
         y="490.40057"
         id="text35878"
         transform="matrix(0.60677203,0,0,0.60677203,460.70045,-83.392836)"><tspan
           sodipodi:role="line"
           id="tspan35876"
           x="-728.78284"
           y="490.40057"
           style="font-style:italic;font-variant:normal;font-weight:normal;font-stretch:normal;font-family:'Open Sans Condensed';-inkscape-font-specification:'Open Sans Condensed, ';fill:#000000;fill-opacity:1;stroke:none;stroke-width:0;stroke-miterlimit:4;stroke-dasharray:none;stroke-opacity:1;paint-order:markers stroke fill">A LIBRE MULTIPLAYER FPS GAME</tspan></text>
      <rect
         style="mix-blend-mode:normal;fill:#000000;fill-opacity:1;stroke:none;stroke-width:7.55906;stroke-linecap:round;paint-order:markers stroke fill"
         id="rect35880"
         width="109.6572"
         height="339.00281"
         x="-60.158474"
         y="290.37952"
         transform="matrix(0,1.1287688,-0.81322793,0,518.38479,149.86446)"
         clip-path="url(#clipPath12933)" />
    </g>
    <use
       x="0"
       y="0"
       xlink:href="#g1156"
       id="use35884"
       width="100%"
       height="100%"
       transform="translate(0,144.85685)" />
    <g
       id="g35894"
       transform="matrix(0.88923981,0,0,0.88923981,-303.36198,986.54428)"
       inkscape:export-filename="/data/Projects/Games/Liblast/Design/logo.png"
       inkscape:export-xdpi="51.868626"
       inkscape:export-ydpi="51.868626">
      <rect
         style="mix-blend-mode:normal;fill:url(#linearGradient35940);fill-opacity:1;stroke:none;stroke-width:7.55906;stroke-linecap:round;paint-order:markers stroke fill"
         id="rect35892"
         width="109.6572"
         height="339.00281"
         x="-60.158474"
         y="290.37952"
         transform="matrix(0,1.1287688,-0.81322793,0,518.38479,149.86446)"
         clip-path="url(#clipPath12933)" />
    </g>
    <g
       id="g35902"
       transform="matrix(0.88923981,0,0,0.88923981,15.902683,986.54428)"
       inkscape:export-filename="/data/Projects/Games/Liblast/Design/logo.png"
       inkscape:export-xdpi="51.868626"
       inkscape:export-ydpi="51.868626"
       style="fill:#ffffff">
      <rect
         style="mix-blend-mode:normal;fill:#ffffff;fill-opacity:1;stroke:none;stroke-width:7.55906;stroke-linecap:round;paint-order:markers stroke fill"
         id="rect35900"
         width="109.6572"
         height="339.00281"
         x="-60.158474"
         y="290.37952"
         transform="matrix(0,1.1287688,-0.81322793,0,518.38479,149.86446)"
         clip-path="url(#clipPath12933)" />
    </g>
    <text
       xml:space="preserve"
       style="font-style:normal;font-weight:normal;font-size:27.9478px;line-height:1.25;font-family:sans-serif;fill:#000000;fill-opacity:1;stroke:none;stroke-width:0.698695"
       x="-563.35297"
       y="1125.0973"
       id="text35916"><tspan
         sodipodi:role="line"
         id="tspan35914"
         style="fill:#ffffff;stroke-width:0.698695"
         x="-563.35297"
         y="1125.0973">for dark bg</tspan></text>
    <text
       xml:space="preserve"
       style="font-style:normal;font-weight:normal;font-size:27.9478px;line-height:1.25;font-family:sans-serif;fill:#000000;fill-opacity:1;stroke:none;stroke-width:0.698695"
       x="399.89807"
       y="1183.1431"
       id="text35924"><tspan
         sodipodi:role="line"
         style="fill:#ffffff;stroke-width:0.698695"
         x="399.89807"
         y="1183.1431"
         id="tspan35922">low detail</tspan><tspan
         sodipodi:role="line"
         style="fill:#ffffff;stroke-width:0.698695"
         x="399.89807"
         y="1218.0778"
         id="tspan44305">small size</tspan></text>
    <path
       style="fill:none;stroke:#ffffff;stroke-width:1.565;stroke-linecap:butt;stroke-linejoin:miter;stroke-miterlimit:4;stroke-dasharray:none;stroke-opacity:1"
       d="m 307.56049,1045.4141 h 60.72605 v 290.6616 h -55.35987"
       id="path35926"
       sodipodi:nodetypes="cccc" />
    <g
       id="g35936"
       transform="matrix(0.88923981,0,0,0.88923981,15.902683,1132.8423)"
       inkscape:export-filename="/data/Projects/Games/Liblast/Design/logo.png"
       inkscape:export-xdpi="51.868626"
       inkscape:export-ydpi="51.868626"
       style="fill:#000000">
      <rect
         style="mix-blend-mode:normal;fill:#000000;fill-opacity:1;stroke:none;stroke-width:7.55906;stroke-linecap:round;paint-order:markers stroke fill"
         id="rect35934"
         width="109.6572"
         height="339.00281"
         x="-60.158474"
         y="290.37952"
         transform="matrix(0,1.1287688,-0.81322793,0,518.38479,149.86446)"
         clip-path="url(#clipPath12933)" />
    </g>
    <use
       x="0"
       y="0"
       xlink:href="#g35894"
       id="use36262"
       transform="translate(0,146.29797)"
       width="100%"
       height="100%" />
    <path
       style="fill:none;stroke:#ffffff;stroke-width:1.56;stroke-linecap:butt;stroke-linejoin:miter;stroke-miterlimit:4;stroke-dasharray:none;stroke-opacity:1"
       d="m 368.17307,609.42178 h 17.32905"
       id="path49790" />
    <path
       style="fill:none;stroke:#ffffff;stroke-width:1.56;stroke-linecap:butt;stroke-linejoin:miter;stroke-miterlimit:4;stroke-dasharray:none;stroke-opacity:1"
       d="m 368.17307,900.08333 h 17.32905"
       id="path49890" />
    <path
       style="fill:none;stroke:#ffffff;stroke-width:1.56;stroke-linecap:butt;stroke-linejoin:miter;stroke-miterlimit:4;stroke-dasharray:none;stroke-opacity:1"
       d="m 368.17307,1190.7449 h 17.32905"
       id="path49892" />
    <text
       xml:space="preserve"
       style="font-style:normal;font-weight:normal;font-size:27.9478px;line-height:1.25;font-family:sans-serif;fill:#000000;fill-opacity:1;stroke:none;stroke-width:0.698695"
       x="-566.86926"
       y="980.73376"
       id="text13190"><tspan
         sodipodi:role="line"
         id="tspan13188"
         style="fill:#000000;stroke-width:0.698695"
         x="-566.86926"
         y="980.73376">for light bg</tspan></text>
    <text
       xml:space="preserve"
       style="font-style:normal;font-weight:normal;font-size:27.9478px;line-height:1.25;font-family:sans-serif;fill:#000000;fill-opacity:1;stroke:none;stroke-width:0.698695"
       x="-566.86926"
       y="1271.3953"
       id="text35920"><tspan
         sodipodi:role="line"
         id="tspan35918"
         style="fill:#000000;stroke-width:0.698695"
         x="-566.86926"
         y="1271.3953">for light bg</tspan></text>
  </g>
</svg>
