<?xml version="1.0" encoding="UTF-8" standalone="no"?>
<svg
   width="241.88976"
   height="241.88977"
   viewBox="0 0 63.999996 64"
   version="1.1"
   id="svg8"
   inkscape:version="1.1.1 (3bf5ae0d25, 2021-09-20, custom)"
   sodipodi:docname="MuteIcon.svg"
   inkscape:export-filename="/data/Projects/Games/Liblast/Game/Assets/HUD/MuteIcon.png"
   inkscape:export-xdpi="25.400002"
   inkscape:export-ydpi="25.400002"
   xmlns:inkscape="http://www.inkscape.org/namespaces/inkscape"
   xmlns:sodipodi="http://sodipodi.sourceforge.net/DTD/sodipodi-0.dtd"
   xmlns="http://www.w3.org/2000/svg"
   xmlns:svg="http://www.w3.org/2000/svg"
   xmlns:rdf="http://www.w3.org/1999/02/22-rdf-syntax-ns#"
   xmlns:cc="http://creativecommons.org/ns#"
   xmlns:dc="http://purl.org/dc/elements/1.1/">
  <defs
     id="defs2" />
  <sodipodi:namedview
     id="base"
     pagecolor="#ffffff"
     bordercolor="#666666"
     borderopacity="1.0"
     inkscape:pageopacity="0"
     inkscape:pageshadow="2"
     inkscape:zoom="2.8284271"
     inkscape:cx="136.82516"
     inkscape:cy="119.14749"
     inkscape:document-units="mm"
     inkscape:current-layer="layer1"
     inkscape:document-rotation="0"
     showgrid="false"
     inkscape:pagecheckerboard="true"
     borderlayer="true"
     units="px"
     inkscape:window-width="1920"
     inkscape:window-height="1003"
     inkscape:window-x="0"
     inkscape:window-y="0"
     inkscape:window-maximized="1" />
  <metadata
     id="metadata5">
    <rdf:RDF>
      <cc:Work
         rdf:about="">
        <dc:format>image/svg+xml</dc:format>
        <dc:type
           rdf:resource="http://purl.org/dc/dcmitype/StillImage" />
      </cc:Work>
    </rdf:RDF>
  </metadata>
  <g
     inkscape:label="Layer 1"
     inkscape:groupmode="layer"
     id="layer1">
    <g
       id="g4003"
       transform="matrix(1.4835249,0,0,1.4835249,-14.236037,-15.107458)"
       style="stroke-width:0.67407">
      <path
         id="rect2849"
         style="fill:#ffffff;stroke:none;stroke-width:0.460391;stroke-linecap:round;stroke-linejoin:round;paint-order:markers stroke fill"
         d="M 44.775584,10.98963 30.990895,21.705255 V 41.802221 L 44.775584,52.517845 Z M 20.325913,21.705255 c -1.533872,0 -2.768823,1.234434 -2.768823,2.768307 v 14.559834 c 0,1.533871 1.234951,2.768825 2.768823,2.768825 h 5.792411 2.768306 V 39.033396 24.473562 21.705255 h -2.768306 z" />
    </g>
    <path
       style="fill:none;stroke:#ff0000;stroke-width:4.065;stroke-linecap:butt;stroke-linejoin:miter;stroke-miterlimit:4;stroke-dasharray:none;stroke-opacity:1"
       d="M 3.5033357,48.546698 60.496661,15.453304"
       id="path3885" />
  </g>
</svg>
